-------------------------------------------------------------------------------
Test set: tasksTest.repositoryTest.TaskIOTest
-------------------------------------------------------------------------------
Tests run: 1, Failures: 0, Errors: 0, Skipped: 0, Time elapsed: 0.06 s - in tasksTest.repositoryTest.TaskIOTest
