tasksTest\services\TasksServiceTest.class
tasksTest\integration\IntegrationTestSR.class
tasksTest\repositoryTest\TaskIOTest.class
tasksTest\repositoryTest\data\TasksOperationsTest.class
tasksTest\integration\IntegrationTestSRE.class
tasksTest\modelTest\TaskTest.class
